1093
1665
9414
7400
8945
8903
8201
4260
5111
1072
11667
7387
6024
11603
11613
7120
10067
11977
9503
9810
8764
4690
3125
12095
9248
10943
8138
443
452
1985
821
1545
10463
10236
3469
1644
1374
11671
428
6485
454
12095
8396
6478
5933
7720
8123
10524
7409
5337
2570
10697
4551
5695
5028
1510
4350
877
8767
4802
2862
9588
872
7850
2059
4341
4018
3433
10536
4446
4443
10990
11065
550
11993
4709
2795
7827
2945
10204
875
39
3136
5427
5734
8164
1461
4608
9041
10228
3935
6428
7528
4807
8802
9587
3672
531
7545
1920
11790
11988
621
10566
7062
7138
2986
9857
2676
455
2296
3552
494
5433
3503
753
8121
11777
5361
11687
9717
9296
350
11769
8627
3676
3591
6824
11020
11136
8744
10521
5359
3889
8798
133
11028
6308
9990
8228
1288
12287
11780
8595
12244
9807
9348
2600
9296
9234
1998
1248
6241
9161
728
9393
548
4319
3928
11568
3167
383
4324
3050
11085
833
3183
4348
1666
885
288
2954
7696
12068
11549
7651
4111
3133
4775
7931
78
1298
9179
843
10459
9907
10236
5532
8750
1875
11624
6441
9071
3660
9492
7868
11306
386
12216
683
8084
215
10450
3491
6808
9711
5666
5443
7368
10442
1085
7446
6264
4788
8289
4434
2406
761
4490
5680
2636
3826
12122
11708
7486
3849
1811
6503
4235
1738
1711
6844
8767
12161
4859
3286
4107
5050
3253
11475
10016
4338
1156
3991
9126
3970
8425
6056
4731
7440
6260
1891
11266
6093
8123
987
4466
9934
2014
3226
11673
3725
10070
2675
10411
2640
5961
9042
7690
9214
8229
5417
8076
3909
9408
11726
2403
69
5493
1658
7509
11753
3550
1010
82
11673
1997
4548
9319
4011
7774
3227
2261
79
5902
383
9533
6387
9425
4934
10125
12178
4876
5912
10612
8808
5349
726
3401
5366
9198
5434
11643
459
6444
11725
6656
2965
10798
10499
6977
807
1437
3762
887
1863
4145
4944
2774
8094
9878
610
2508
9278
1046
831
322
6395
8370
3723
6285
12092
9158
5640
262
10126
11889
1443
803
4922
11942
7780
254
7904
6066
7954
4291
10211
609
7066
540
5011
7676
9861
2001
8723
5216
2323
9642
1298
570
10452
7914
9728
10616
8177
7566
10216
4144
2893
9663
3797
5197
9917
6225
11263
5582
10517
3709
6191
12107
4249
11202
7494
1822
7727
10741
1562
4574
2619
9673
5145
782
5299
9397
5922
1187
4674
10662
12144
2091
8036
10465
7288
188
4402
6262
5770
9443
9971
6485
9261
8745
12212
11279
5091
7650
9732
6653
12225
6875
4038
5081
2181
9337
2189
8103
5048
1388
6476
11716
10292
9037
9892
5292
9225
2005
6078
2707
11448
3761
3716
2944
7030
3639
1935
6645
5814
6191
7822
274
777
11860
5355
9771
3432
2068
109
3004
10269
6585
2431
2797
3333
35
8089
270
8853
1878
9790
2537
163
1217
5481
1717
11670
1940
8362
5195
8131
3896
5469
3432
10280
5348
914
8237
1940
1023
5765
6734
2133
2721
9531
12279
2756
12144
7073
6133
1733
4574
8670
8710
316
8676
10427
6510
10616
1025
6229
983
4921
6222
4415
9725
11570
12143
197
8034
7690
5963
9292
9823
8684
6534
4338
5964
6389
11411
12097
2647
10510
3003
11357
5350
6203
4019
11860
4530
5044
324
5513
4489
6546
4453
8739
351
4307
8936
8385
11997
9423
5389
4056
5818
6447
2918
6306
7361
2040
639
4532
7074
10455
10413
135
4369
2143
6519
8899
1712
6843
8937
725
1100
1101
9464
1451
5408
636
4361
11929
10059
9750
10509
10402
10721
1138
4419
317
9992
11871
4849
4777
10037
2973
11726
2117
11930
5956
5541
1353
511
2189
2078
8424
10103
6067
9876
3222
6703
1948
9675
4473
6222
2420
2586
11467
10371
1530
11785
8074
1112
11158
7376
11150
1843
6813
7791
8297
480
1043
9650
7804
3232
6252
3940
1046
30
8340
11081
6733
10288
2992
5731
11034
5412
8317
10212
10307
4371
4232
6093
5484
3102
1180
11158
11758
2517
6660
7766
9810
2228
5127
5326
5460
5903
9266
1031
458
5317
6636
7191
10129
4152
7446
3398
4088
3475
1321
2107
2370
78
2724
7854
3180
3904
1247
2649
945
2432
10415
10755
4660
10066
3792
4644
10493
7582
5675
10951
7423
6836
378
12076
10988
7824
3185
9601
5823
11320
11708
8194
11398
2143
10572
9102
571
6344
11751
1516
8776
4401
12271
1147
8991
10588
5791
7195
405
5991
5858
7829
538
760
2140
6050
8584
5326
3362
2119
4357
2781
4837
10279
11737
9933
7092
19
3988
1078
8348
475
5479
2855
1622
2181
7967
7414
3900
8372
7929
4282
10725
8467
5042
577
9041
8151
427
115
4794
11597
9709
9631
9587
3682
7275
11203
10514
11264
12281
6574
6263
5471
3953
7886
2176
11920
9824
600
8003
5464
4883
964
8455
4449
1541
5207
311
1968
12135
5105
1276
4080
9260
5387
7762
11060
4301
5987
4559
4293
7085
10822
4288
11038
6419
988
10669
10767
1588
908
3942
995
1872
108
12258
10226
12129
280
6718
11975
12199
7994
10579
3694
7905
6052
2465
12206
6564
7024
11023
1360
82
3022
6923
6501
10823
5303
4980
6935
735
3446
7931
9420
10368
7900
7357
10208
2704
1786
4418
9427
4304
2709
7646
12209
3285
10111
6650
9849
11660
5384
5734
11742
2930
368
478
1464
195
12271
8400
931
10242
10855
10351
8321
990
5420
6240
10507
1730
5182
7646
6035
7891
3003
479
11177
7638
7130
8737
1533
7038
2182
7799
9969
9363
2802
11433
9559
2784
2068
10490
7550
634
3076
3582
1624
3020
4346
6656
4751
9529
2013
5310
5131
11829
5789
10832
1702
7443
1805
10049
2193
10800
83
12162
7875
2885
5830
5145
194
2423
10159
7744
3057
946
11327
11495
3967
10197
5862
3242
7437
2399
8552
7093
8752
2052
160
4978
9496
1965
2738
6213
7290
2822
6086
2876
231
6440
2545
425
8863
7228
2694
6445
8174
1732
175
6665
6453
561
9907
1602
2960
6170
3219
6236
2747
3379
11214
6767
5345
1664
691
346
11299
1301
10035
11530
2265
291
6480
11129
7519
9174
12098
10217
5430
12273
